<?xml version="1.0" encoding="iso-8859-1"?>
<svg xmlns="http://www.w3.org/2000/svg" xmlns:xlink="http://www.w3.org/1999/xlink" version="1.1" viewBox="0 0 511 511" enable-background="new 0 0 511 511" width="512px" height="512px">
  <path d="m503.5,404h-4.894l-114.489-114.489c-4.438-4.438-10.34-6.883-16.617-6.883s-12.179,2.445-16.617,6.883l-7.383,7.383-71.383-71.383c-2.611-2.611-5.732-4.526-9.135-5.666 0.005-0.115 0.017-0.229 0.017-0.345v-40.5h80.485c0.007,0 0.014,0.001 0.021,0.001 0.091,0 0.182-0.012 0.273-0.016 0.175-0.006 0.35-0.011 0.521-0.03 0.101-0.011 0.201-0.031 0.301-0.046 0.172-0.025 0.343-0.052 0.511-0.089 0.092-0.02 0.183-0.047 0.274-0.07 0.181-0.047 0.359-0.098 0.535-0.158 0.081-0.028 0.161-0.058 0.242-0.088 0.192-0.073 0.379-0.154 0.563-0.241 0.043-0.02 0.086-0.034 0.129-0.055 0.028-0.014 0.054-0.032 0.082-0.046 0.139-0.072 0.274-0.15 0.408-0.23 0.086-0.051 0.173-0.101 0.256-0.156 0.108-0.071 0.211-0.147 0.315-0.223 0.101-0.073 0.202-0.146 0.298-0.223 0.078-0.063 0.152-0.131 0.227-0.198 0.11-0.097 0.221-0.193 0.325-0.295 0.061-0.06 0.117-0.124 0.176-0.186 0.107-0.113 0.215-0.226 0.314-0.345 0.059-0.071 0.113-0.146 0.169-0.219 0.089-0.115 0.179-0.229 0.26-0.348 0.066-0.097 0.125-0.198 0.187-0.298 0.062-0.101 0.127-0.2 0.185-0.304 0.07-0.126 0.131-0.257 0.194-0.387 0.04-0.084 0.084-0.166 0.121-0.251 0.062-0.142 0.115-0.288 0.168-0.434 0.029-0.081 0.062-0.16 0.089-0.242 0.045-0.139 0.082-0.281 0.119-0.423 0.025-0.097 0.053-0.193 0.075-0.291 0.027-0.122 0.046-0.247 0.067-0.371 0.021-0.125 0.043-0.249 0.057-0.375 0.012-0.102 0.018-0.206 0.026-0.31 0.011-0.152 0.021-0.303 0.023-0.456 0-0.033 0.005-0.065 0.005-0.098 0-0.061-0.008-0.119-0.009-0.18-0.004-0.157-0.01-0.313-0.024-0.47-0.009-0.102-0.022-0.203-0.034-0.303-0.018-0.139-0.038-0.278-0.064-0.416-0.022-0.12-0.049-0.237-0.076-0.354-0.027-0.115-0.056-0.23-0.089-0.344-0.04-0.138-0.085-0.274-0.132-0.409-0.033-0.093-0.065-0.186-0.102-0.278-0.059-0.15-0.125-0.297-0.194-0.442-0.025-0.052-0.043-0.106-0.069-0.158l-14.322-28.645 14.323-28.646c0.026-0.052 0.044-0.105 0.069-0.158 0.069-0.145 0.134-0.292 0.194-0.442 0.037-0.092 0.069-0.185 0.102-0.278 0.047-0.135 0.092-0.27 0.132-0.409 0.033-0.114 0.061-0.229 0.089-0.344 0.028-0.117 0.054-0.235 0.076-0.354 0.026-0.139 0.046-0.277 0.064-0.416 0.013-0.101 0.026-0.201 0.034-0.303 0.014-0.157 0.02-0.313 0.024-0.47 0.001-0.06 0.009-0.119 0.009-0.18 0-0.033-0.005-0.065-0.005-0.098-0.002-0.153-0.012-0.304-0.023-0.456-0.008-0.104-0.014-0.207-0.026-0.31-0.015-0.126-0.036-0.25-0.057-0.375-0.021-0.124-0.04-0.249-0.067-0.371-0.022-0.098-0.049-0.194-0.075-0.291-0.037-0.142-0.074-0.284-0.119-0.423-0.027-0.082-0.059-0.161-0.089-0.242-0.053-0.146-0.106-0.292-0.168-0.434-0.037-0.085-0.08-0.167-0.121-0.251-0.063-0.13-0.124-0.261-0.194-0.387-0.057-0.104-0.122-0.203-0.185-0.304-0.062-0.1-0.121-0.201-0.187-0.298-0.082-0.119-0.172-0.233-0.26-0.348-0.057-0.073-0.11-0.148-0.169-0.219-0.099-0.119-0.207-0.232-0.314-0.345-0.059-0.062-0.115-0.126-0.176-0.186-0.104-0.102-0.215-0.199-0.325-0.295-0.076-0.066-0.149-0.134-0.227-0.198-0.096-0.078-0.198-0.15-0.298-0.223-0.104-0.076-0.207-0.152-0.315-0.223-0.083-0.054-0.17-0.104-0.256-0.156-0.134-0.08-0.269-0.158-0.408-0.23-0.028-0.015-0.054-0.032-0.082-0.046-0.052-0.026-0.105-0.044-0.157-0.069-0.146-0.069-0.292-0.135-0.443-0.194-0.091-0.036-0.183-0.068-0.274-0.1-0.137-0.048-0.274-0.093-0.414-0.133-0.112-0.032-0.224-0.06-0.336-0.086-0.121-0.029-0.242-0.056-0.365-0.078-0.134-0.025-0.268-0.044-0.402-0.061-0.106-0.014-0.212-0.027-0.319-0.036-0.15-0.013-0.3-0.019-0.45-0.023-0.065-0.002-0.128-0.01-0.194-0.01h-80.501v-0.5c0-4.142-3.358-7.5-7.5-7.5s-7.5,3.358-7.5,7.5v120c0,0.116 0.012,0.23 0.017,0.345-3.403,1.139-6.523,3.054-9.135,5.666l-47.382,47.382-7.383-7.383c-4.438-4.438-10.34-6.883-16.617-6.883s-12.179,2.445-16.617,6.883l-138.489,138.489h-4.894c-4.142,0-7.5,3.358-7.5,7.5s3.358,7.5 7.5,7.5h496c4.142,0 7.5-3.358 7.5-7.5s-3.358-7.5-7.5-7.5zm-52.894,0l-56.5-56.5 13.393-13.393 69.894,69.893h-26.787zm-128,0l-96.5-96.5 9.726-9.726c6.434-6.434 16.901-6.434 23.335,0l6.059,6.059c12.282,12.282 32.266,12.282 44.548,0l9.726-9.726 109.893,109.893h-106.787zm38.883-103.883c1.605-1.605 3.74-2.49 6.011-2.49s4.405,0.884 6.01,2.49l23.383,23.383-13.393,13.394-29.394-29.394 7.383-7.383zm-30.124-185.117l-10.573,21.146c-0.023,0.046-0.04,0.094-0.062,0.141-0.059,0.125-0.114,0.252-0.167,0.38-0.045,0.109-0.088,0.218-0.127,0.327-0.04,0.113-0.076,0.227-0.11,0.341-0.038,0.125-0.075,0.25-0.106,0.376-0.026,0.104-0.047,0.21-0.068,0.315-0.027,0.134-0.053,0.268-0.073,0.402-0.016,0.107-0.026,0.214-0.036,0.322-0.013,0.131-0.026,0.262-0.032,0.393-0.006,0.119-0.005,0.237-0.005,0.357 0,0.119-0.001,0.238 0.005,0.357 0.006,0.131 0.019,0.262 0.032,0.393 0.011,0.107 0.021,0.215 0.036,0.322 0.019,0.134 0.046,0.268 0.073,0.402 0.021,0.106 0.042,0.211 0.068,0.315 0.031,0.126 0.068,0.251 0.106,0.376 0.035,0.115 0.07,0.229 0.11,0.341 0.039,0.11 0.082,0.219 0.127,0.327 0.052,0.128 0.107,0.255 0.167,0.38 0.022,0.047 0.039,0.094 0.062,0.141l10.573,21.146h-68.365v-49h68.365zm-81.876,121.117c1.605-1.605 3.74-2.49 6.011-2.49s4.405,0.884 6.01,2.49l47.383,47.383-9.726,9.726c-6.434,6.434-16.901,6.434-23.335,0l-6.059-6.059c-12.282-12.282-32.266-12.282-44.548,0l-9.726,9.726-13.393-13.393 47.383-47.383zm-88,40c1.605-1.605 3.74-2.49 6.011-2.49s4.405,0.884 6.01,2.49l47.383,47.383-6.704,6.704c-3.688,3.688-9.69,3.688-13.379,0l-16.015-16.015c-9.537-9.538-25.056-9.537-34.606,0.015-1.787,1.787-4.163,2.771-6.689,2.771s-4.902-0.984-6.689-2.771l-6.704-6.704 31.382-31.383zm-41.989,41.989l6.704,6.704c4.62,4.62 10.762,7.165 17.296,7.165s12.676-2.544 17.311-7.179c3.688-3.688 9.69-3.688 13.379,0l16.015,16.015c4.769,4.769 11.032,7.153 17.296,7.153s12.527-2.384 17.296-7.153l6.704-6.704 69.892,69.893h-267.787l85.894-85.894z" fill="#B89400"/>
</svg>
